('C:\\Users\\magshimim\\krayot-1004-cameracontrol\\Server\\Server\\build\\SendEmail\\PKG-00.pkg',
 {'BINARY': 1,
  'DATA': 1,
  'EXECUTABLE': 1,
  'EXTENSION': 1,
  'PYMODULE': 1,
  'PYSOURCE': 1,
  'PYZ': 0},
 [('PYZ-00.pyz',
   'C:\\Users\\magshimim\\krayot-1004-cameracontrol\\Server\\Server\\build\\SendEmail\\PYZ-00.pyz',
   'PYZ'),
  ('struct', 'c:\\python36\\lib\\struct.pyo', 'PYMODULE'),
  ('pyimod01_os_path',
   'c:\\python36\\lib\\site-packages\\PyInstaller\\loader\\pyimod01_os_path.pyc',
   'PYMODULE'),
  ('pyimod02_archive',
   'c:\\python36\\lib\\site-packages\\PyInstaller\\loader\\pyimod02_archive.pyc',
   'PYMODULE'),
  ('pyimod03_importers',
   'c:\\python36\\lib\\site-packages\\PyInstaller\\loader\\pyimod03_importers.pyc',
   'PYMODULE'),
  ('pyiboot01_bootstrap',
   'c:\\python36\\lib\\site-packages\\PyInstaller\\loader\\pyiboot01_bootstrap.py',
   'PYSOURCE'),
  ('SendEmail',
   'C:\\Users\\magshimim\\krayot-1004-cameracontrol\\Server\\Server\\SendEmail.py',
   'PYSOURCE'),
  ('python36.dll', 'c:\\python36\\python36.dll', 'BINARY'),
  ('VCRUNTIME140.dll', 'c:\\python36\\VCRUNTIME140.dll', 'BINARY'),
  ('_ssl', 'c:\\python36\\DLLs\\_ssl.pyd', 'EXTENSION'),
  ('unicodedata', 'c:\\python36\\DLLs\\unicodedata.pyd', 'EXTENSION'),
  ('pyexpat', 'c:\\python36\\DLLs\\pyexpat.pyd', 'EXTENSION'),
  ('_hashlib', 'c:\\python36\\DLLs\\_hashlib.pyd', 'EXTENSION'),
  ('select', 'c:\\python36\\DLLs\\select.pyd', 'EXTENSION'),
  ('_bz2', 'c:\\python36\\DLLs\\_bz2.pyd', 'EXTENSION'),
  ('_lzma', 'c:\\python36\\DLLs\\_lzma.pyd', 'EXTENSION'),
  ('_socket', 'c:\\python36\\DLLs\\_socket.pyd', 'EXTENSION'),
  ('base_library.zip',
   'C:\\Users\\magshimim\\krayot-1004-cameracontrol\\Server\\Server\\build\\SendEmail\\base_library.zip',
   'DATA'),
  ('SendEmail.exe.manifest',
   'C:\\Users\\magshimim\\krayot-1004-cameracontrol\\Server\\Server\\build\\SendEmail\\SendEmail.exe.manifest',
   'BINARY'),
  ('pyi-windows-manifest-filename SendEmail.exe.manifest', '', 'OPTION')],
 False,
 False,
 False)
